{
  "segments": {
    "above": [
      {
        "left": [
          {
            "function": "powerline.segments.shell.mode"
          },
          {
            "function": "powerline.segments.common.net.hostname",
            "priority": 10
          },
          {
            "function": "powerline.segments.common.env.user",
            "priority": 30
          },
          {
            "function": "powerline.segments.common.env.virtualenv",
            "priority": 50
          },
          {
            "function": "powerline.segments.shell.cwd",
            "priority": 10
          },
          {
            "function": "powerline.segments.shell.jobnum",
            "priority": 20
          },
          {
            "function": "powerline.segments.shell.continuation",
            "draw_hard_divider": false
          }
        ],
        "right": [
          {
            "function": "powerline.segments.shell.last_pipe_status",
            "priority": 10
          },
          {
            "function": "powerline_kube_segment.context",
            "priority": 30,
            "args": {
              "show_context": true,
              "show_namespace": true,
              "alert_namespaces": [
                "prod"
              ]
            }
          },
          {
            "function": "powerline.segments.common.vcs.stash",
            "priority": 50
          },
          {
            "function": "powerline.segments.common.vcs.branch",
            "priority": 40,
            "args": {
              "status_colors": true,
              "ignore_statuses": [
                "U"
              ]
            }
          }
        ]
      },
      {
      }
    ],
    "left": [
      {
        "function": "powerline.segments.common.time.date",
        "args": {
          "format": "$"
        }
      }
    ],
    "right": []
  }
}
